\relax 
\providecommand{\transparent@use}[1]{}
\providecommand\hyper@newdestlabel[2]{}
\providecommand\babel@aux[2]{}
\@nameuse{bbl@beforestart}
\providecommand\HyperFirstAtBeginDocument{\AtBeginDocument}
\HyperFirstAtBeginDocument{\ifx\hyper@anchor\@undefined
\global\let\oldcontentsline\contentsline
\gdef\contentsline#1#2#3#4{\oldcontentsline{#1}{#2}{#3}}
\global\let\oldnewlabel\newlabel
\gdef\newlabel#1#2{\newlabelxx{#1}#2}
\gdef\newlabelxx#1#2#3#4#5#6{\oldnewlabel{#1}{{#2}{#3}}}
\AtEndDocument{\ifx\hyper@anchor\@undefined
\let\contentsline\oldcontentsline
\let\newlabel\oldnewlabel
\fi}
\fi}
\global\let\hyper@last\relax 
\gdef\HyperFirstAtBeginDocument#1{#1}
\providecommand\HyField@AuxAddToFields[1]{}
\providecommand\HyField@AuxAddToCoFields[2]{}
\oddpage@label{3}{1}
\pgfsyspdfmark {pgfid15}{4736286}{50644704}
\oddpage@label{4}{1}
\pgfsyspdfmark {pgfid16}{4736286}{50644704}
\oddpage@label{1}{1}
\pgfsyspdfmark {pgfid13}{4736286}{50644704}
\oddpage@label{2}{1}
\pgfsyspdfmark {pgfid14}{4736286}{50644704}
\providecommand \oddpage@label [2]{}
\babel@aux{english}{}
\babel@aux{english}{}
\oddpage@label{5}{2}
\pgfsyspdfmark {pgfid17}{4736286}{50644704}
\oddpage@label{6}{2}
\pgfsyspdfmark {pgfid18}{4736286}{50644704}
\gdef \@abspage@last{2}
